{
  "version": 1,
  "isRoot": true,
  "tools": {
    "dotnet-reportgenerator-globaltool": {
      "version": "5.2.0",
      "commands": [
        "reportgenerator"
      ]
    },
    "dotnet-script": {
      "version": "1.5.0",
      "commands": [
        "dotnet-script"
      ]
    },
    "dotnet-sonarscanner": {
      "version": "6.1.0",
      "commands": [
        "dotnet-sonarscanner"
      ]
    },
    "husky": {
      "version": "0.6.4",
      "commands": [
        "husky"
      ]
    }
  }
}